{
    "name": "<%= pkg.name %>",
    "version": "0.2.5",
    "repository": {
        "type": "git",
        "url": "https://bitbucket.org/kokospanin/flogenerator-devpress"
    },
    "dependencies": {
    }
}